0 0.863217 0.786445 0.060484 0.294738
0 0.726240 0.926442 0.071158 0.145264
0 0.919552 0.359073 0.037951 0.240001
0 0.902355 0.427494 0.046253 0.145264
0 0.942089 0.547478 0.052178 0.221020
0 0.771899 0.550653 0.074716 0.290527
0 0.309964 0.542234 0.049811 0.265264
0 0.642609 0.131770 0.041551 0.160129
0 0.786725 0.202233 0.049811 0.174737
0 0.186031 0.736973 0.077088 0.338949
0 0.124361 0.723284 0.077088 0.328422
0 0.221018 0.389600 0.054555 0.250527
0 0.111315 0.359074 0.058112 0.189474
0 0.573785 0.052169 0.039256 0.104337
