0 0.854903 0.748081 0.054220 0.272905
0 0.588951 0.890020 0.087850 0.215644
0 0.969862 0.234554 0.037062 0.174221
0 0.962654 0.295471 0.043238 0.127924
0 0.727931 0.313745 0.051474 0.181531
0 0.273584 0.325321 0.039121 0.185186
0 0.291772 0.232730 0.048043 0.146199
0 0.175098 0.356387 0.059024 0.205897
0 0.065972 0.590311 0.072750 0.237574
0 0.022048 0.736507 0.041179 0.249757
0 0.718996 0.074415 0.033659 0.129276
0 0.618773 0.034128 0.035071 0.068256
0 0.521656 0.054230 0.039875 0.108461
0 0.690495 0.048093 0.030267 0.093933
