0 0.935799 0.322230 0.046253 0.227369
0 0.926313 0.368549 0.039137 0.134737
0 0.923940 0.609598 0.053369 0.250527
0 0.807720 0.871678 0.058106 0.248360
0 0.732999 0.663283 0.067600 0.320001
0 0.225999 0.620129 0.078274 0.229475
0 0.185083 0.458021 0.060484 0.195790
0 0.176781 0.314863 0.050997 0.178948
0 0.330957 0.234862 0.050997 0.195790
0 0.285890 0.275918 0.046253 0.181053
0 0.086647 0.815918 0.086576 0.351580
0 0.028534 0.825390 0.055741 0.303159
0 0.666586 0.109600 0.043881 0.151580
0 0.591811 0.047431 0.022652 0.094863
0 0.565717 0.044273 0.029768 0.088545
