0 0.685679 0.774548 0.083018 0.321054
0 0.140627 0.506127 0.068193 0.212281
0 0.896189 0.664897 0.059298 0.273685
0 0.745473 0.293848 0.058310 0.222808
0 0.951039 0.297352 0.060287 0.236843
0 0.938193 0.325422 0.036567 0.096492
0 0.132722 0.660514 0.044474 0.215790
0 0.776603 0.932450 0.092901 0.135101
0 0.013135 0.909642 0.024708 0.180716
0 0.236988 0.286830 0.051392 0.128071
0 0.295792 0.262269 0.044474 0.177194
0 0.688645 0.081565 0.047439 0.131579
0 0.742508 0.039466 0.022731 0.078933
0 0.542870 0.054371 0.046450 0.105264
0 0.604145 0.044731 0.038544 0.089461
0 0.712364 0.035958 0.023719 0.071915
