0 0.942396 0.239448 0.052084 0.169348
0 0.852620 0.219347 0.037007 0.121833
0 0.842329 0.159649 0.030178 0.151072
0 0.827949 0.139546 0.028783 0.144981
0 0.712475 0.194981 0.034951 0.158383
0 0.630238 0.227875 0.040433 0.197369
0 0.589119 0.226657 0.037692 0.192496
0 0.490092 0.207773 0.043860 0.169348
0 0.473644 0.120052 0.032895 0.140108
0 0.299918 0.381385 0.058251 0.182749
0 0.346519 0.243104 0.033580 0.118178
0 0.366735 0.184624 0.037007 0.127924
0 0.322876 0.223611 0.030154 0.147418
0 0.300947 0.246150 0.037007 0.138889
0 0.276961 0.244931 0.042489 0.160819
0 0.593573 0.090204 0.030154 0.121833
0 0.616874 0.052436 0.028783 0.102340
