0 0.792999 0.819374 0.058937 0.196151
0 0.931430 0.327779 0.046601 0.182749
0 0.723791 0.210816 0.060290 0.172998
0 0.801222 0.112133 0.041119 0.138889
0 0.560678 0.306458 0.047972 0.210771
0 0.660391 0.254678 0.044545 0.143763
0 0.519218 0.306456 0.040433 0.193714
0 0.426016 0.313766 0.037692 0.162038
0 0.397917 0.285136 0.045916 0.187623
0 0.513735 0.136500 0.030839 0.134016
0 0.452057 0.129799 0.037692 0.125488
0 0.353715 0.181579 0.035636 0.134016
0 0.274219 0.325341 0.034265 0.168129
0 0.247492 0.308284 0.041119 0.180313
0 0.212541 0.317422 0.045230 0.181531
0 0.178961 0.299756 0.042489 0.194932
0 0.543545 0.071929 0.027412 0.116959
0 0.600084 0.051194 0.032210 0.102387
0 0.867355 0.049389 0.025356 0.098685
0 0.896480 0.099951 0.032895 0.134016
