0 0.790600 0.939987 0.054139 0.115741
0 0.786831 0.783433 0.069902 0.216862
0 0.931431 0.355190 0.063048 0.196151
0 0.703223 0.203508 0.037007 0.163256
0 0.792656 0.103606 0.036321 0.138889
0 0.899564 0.089594 0.030839 0.132798
0 0.859816 0.056090 0.036321 0.112086
0 0.647370 0.265033 0.041804 0.157164
0 0.555196 0.322905 0.043860 0.211989
0 0.506196 0.325950 0.047286 0.205897
0 0.382155 0.311330 0.044545 0.186404
0 0.438008 0.312549 0.047972 0.186404
0 0.259485 0.327169 0.039063 0.159601
0 0.190269 0.329604 0.040433 0.193714
0 0.237212 0.310721 0.038377 0.182749
0 0.156003 0.308285 0.033580 0.182749
0 0.497630 0.145637 0.030154 0.144981
0 0.464392 0.129799 0.039063 0.127924
0 0.365708 0.168786 0.036321 0.132798
0 0.554511 0.060293 0.032895 0.115863
0 0.593230 0.055482 0.029468 0.108431
