0 0.816641 0.896736 0.070587 0.199806
0 0.937941 0.293665 0.058251 0.185186
0 0.770384 0.219346 0.039748 0.158383
0 0.809788 0.129799 0.037692 0.149854
0 0.879347 0.107261 0.037007 0.148636
0 0.683692 0.235186 0.041804 0.153509
0 0.588091 0.279654 0.043860 0.208334
0 0.539434 0.276607 0.046601 0.173003
0 0.386267 0.345443 0.055510 0.193714
0 0.548343 0.123100 0.031524 0.138889
0 0.654566 0.039582 0.030154 0.074440
0 0.612076 0.039583 0.023301 0.076876
0 0.516818 0.085940 0.030154 0.123051
0 0.430469 0.254678 0.063048 0.163256
0 0.426357 0.142592 0.054825 0.134016
0 0.333156 0.185843 0.035636 0.142544
0 0.301631 0.291228 0.046601 0.143763
0 0.269764 0.283917 0.039063 0.163256
0 0.240982 0.305847 0.036321 0.185186
0 0.207744 0.274170 0.032895 0.199806
