0 0.796082 0.851658 0.063734 0.233919
0 0.932116 0.321687 0.050713 0.187623
0 0.738516 0.210818 0.043175 0.155946
0 0.801908 0.121272 0.042489 0.144981
0 0.893739 0.104824 0.031524 0.151073
0 0.662105 0.245540 0.050713 0.147418
0 0.569588 0.303411 0.050713 0.202242
0 0.524700 0.305239 0.044545 0.188841
0 0.423959 0.323513 0.058251 0.179094
0 0.275590 0.312549 0.039748 0.162038
0 0.214597 0.309502 0.042489 0.192496
0 0.185815 0.291227 0.038377 0.177876
0 0.345834 0.186452 0.045916 0.158383
0 0.444519 0.144420 0.050028 0.113305
0 0.524014 0.143201 0.040433 0.144981
0 0.535665 0.069491 0.029468 0.124269
0 0.606251 0.046893 0.039063 0.091496
