0 0.931862 0.802338 0.039036 0.154675
0 0.155720 0.820584 0.039749 0.120617
0 0.233162 0.841907 0.034266 0.121835
0 0.277364 0.749922 0.026728 0.088940
0 0.536073 0.654281 0.028784 0.112088
0 0.241727 0.757841 0.030840 0.121835
0 0.444581 0.661567 0.029474 0.097422
0 0.432934 0.618337 0.022616 0.098686
0 0.479193 0.653672 0.028784 0.091376
0 0.548424 0.575121 0.030183 0.094964
0 0.476108 0.486758 0.018504 0.069446
0 0.476450 0.611029 0.021930 0.062136
0 0.102606 0.972879 0.056882 0.049952
0 0.639200 0.970443 0.059650 0.049952
