0 0.505578 0.576306 0.029469 0.082848
0 0.347953 0.529401 0.022616 0.069446
0 0.587814 0.300347 0.015762 0.042642
0 0.558688 0.318014 0.020560 0.048734
0 0.525109 0.288774 0.017818 0.046297
0 0.468570 0.392335 0.023986 0.063354
