0 0.592608 0.888194 0.073330 0.211993
0 0.826977 0.466055 0.058228 0.205934
0 0.787583 0.293030 0.032895 0.164477
0 0.720764 0.232114 0.044546 0.154731
0 0.363025 0.176678 0.039063 0.155949
0 0.062168 0.248562 0.044546 0.163259
0 0.128645 0.194954 0.044546 0.141329
0 0.211911 0.186425 0.046602 0.158386
0 0.236240 0.153528 0.040434 0.141329
0 0.106715 0.160840 0.028098 0.121835
0 0.459999 0.146830 0.045231 0.137674
0 0.345207 0.057279 0.033581 0.112088
0 0.324304 0.182770 0.043861 0.168133
0 0.596378 0.201047 0.035637 0.124272
0 0.661826 0.207137 0.034951 0.168133
0 0.633728 0.202874 0.032210 0.127927
0 0.614882 0.174851 0.030154 0.132800
0 0.444579 0.082864 0.028098 0.119398
