0 0.679303 0.500141 0.047965 0.225359
0 0.869825 0.545849 0.069903 0.231487
0 0.514485 0.296084 0.034951 0.136455
0 0.428135 0.325325 0.033581 0.158386
0 0.654633 0.336901 0.030156 0.140110
0 0.540871 0.542802 0.035637 0.237579
0 0.617628 0.501987 0.037007 0.209557
0 0.567257 0.512340 0.030840 0.213212
0 0.586788 0.511102 0.023301 0.210816
0 0.635102 0.466045 0.039063 0.222958
