0 0.732420 0.631130 0.030840 0.107215
0 0.584732 0.708495 0.027413 0.096250
0 0.594654 0.802310 0.030870 0.108435
0 0.814314 0.874192 0.031525 0.105997
0 0.684790 0.870539 0.031525 0.088940
0 0.647439 0.898558 0.029469 0.110870
0 0.626195 0.862008 0.023986 0.132800
0 0.688889 0.825461 0.038404 0.096250
0 0.657720 0.849824 0.029469 0.086503
