0 0.962612 0.547077 0.069216 0.236356
0 0.447272 0.704250 0.063710 0.277796
0 0.694313 0.227875 0.035636 0.165693
0 0.864956 0.364936 0.039748 0.179094
0 0.775523 0.314985 0.058251 0.169348
0 0.571983 0.188893 0.039069 0.168140
0 0.598370 0.177315 0.031524 0.147418
0 0.534636 0.171222 0.026042 0.125488
0 0.514077 0.130409 0.034265 0.141326
0 0.411966 0.100560 0.039748 0.127924
0 0.324590 0.130409 0.040433 0.148636
0 0.282100 0.130410 0.034951 0.153509
0 0.243380 0.261378 0.052084 0.164474
0 0.108374 0.240058 0.046601 0.168129
0 0.037787 0.288182 0.026042 0.086501
0 0.189240 0.122490 0.039748 0.132798
0 0.130990 0.120661 0.042489 0.148636
0 0.027508 0.219347 0.030154 0.131579
0 0.273191 0.029227 0.030839 0.051292
