0 0.833762 0.477620 0.065129 0.229020
0 0.583979 0.879680 0.075384 0.236356
0 0.795397 0.298537 0.037692 0.170566
0 0.729266 0.242478 0.060303 0.160785
0 0.656965 0.204727 0.036321 0.163256
0 0.126535 0.201664 0.043174 0.149820
0 0.054578 0.257723 0.047286 0.174221
0 0.215626 0.197417 0.050028 0.155946
0 0.360910 0.171223 0.041804 0.149854
0 0.450687 0.143200 0.043175 0.154728
0 0.318764 0.171237 0.037007 0.169377
0 0.231730 0.151121 0.039748 0.141326
0 0.114199 0.151729 0.029468 0.123051
0 0.340694 0.063401 0.030154 0.121833
0 0.629894 0.198025 0.028783 0.147418
0 0.591517 0.196808 0.034265 0.123051
0 0.608650 0.183407 0.030154 0.135234
0 0.451714 0.084722 0.034265 0.132798
