0 0.494889 0.790133 0.068531 0.310674
0 0.905732 0.517227 0.060993 0.232701
0 0.824875 0.332651 0.045896 0.175439
0 0.753936 0.281481 0.053454 0.151073
0 0.665531 0.204117 0.035636 0.157164
0 0.622699 0.192543 0.033580 0.173003
0 0.596658 0.184014 0.029468 0.143763
0 0.560679 0.189498 0.031524 0.132798
0 0.573699 0.163912 0.034265 0.140108
0 0.483581 0.109696 0.030839 0.119396
0 0.501742 0.146246 0.031524 0.075536
0 0.429099 0.116398 0.042489 0.142544
0 0.339666 0.149293 0.034951 0.157164
0 0.304373 0.049366 0.027412 0.098732
0 0.295469 0.158433 0.035625 0.155941
0 0.234128 0.227265 0.041804 0.159601
0 0.206031 0.130409 0.040433 0.126706
0 0.132360 0.140156 0.041119 0.143763
0 0.110088 0.221174 0.045916 0.154728
