0 0.432183 0.674392 0.067846 0.274124
0 0.972559 0.551323 0.054806 0.237539
0 0.869404 0.367980 0.051412 0.182744
0 0.783747 0.321686 0.055510 0.175439
0 0.707677 0.235184 0.034951 0.151073
0 0.589118 0.168786 0.030839 0.140108
0 0.561021 0.180970 0.034951 0.171784
0 0.528469 0.171832 0.030154 0.124269
0 0.519560 0.108479 0.026042 0.087720
0 0.410596 0.095077 0.039748 0.134016
0 0.322192 0.127992 0.035634 0.146239
0 0.247149 0.266252 0.054139 0.171784
0 0.111801 0.249195 0.050713 0.171784
0 0.039844 0.299148 0.035636 0.096248
0 0.028541 0.241871 0.029480 0.147446
0 0.183416 0.120662 0.034951 0.131579
0 0.279702 0.135891 0.031524 0.162038
0 0.131675 0.112133 0.043860 0.131579
0 0.272163 0.041470 0.031524 0.082846
