0 0.890312 0.503216 0.056195 0.221736
0 0.513050 0.818764 0.077440 0.304582
0 0.226591 0.230312 0.050028 0.170566
0 0.630923 0.191326 0.029468 0.151073
0 0.822467 0.325951 0.045230 0.181531
0 0.749138 0.273561 0.053454 0.159601
0 0.113856 0.218128 0.038377 0.148636
0 0.297863 0.154165 0.040433 0.169348
0 0.345149 0.150511 0.039063 0.157164
0 0.435610 0.126144 0.048657 0.157164
0 0.475015 0.108478 0.023301 0.131579
0 0.565133 0.195590 0.033580 0.144981
0 0.602482 0.176074 0.031526 0.125445
0 0.660048 0.195590 0.031524 0.144981
0 0.577812 0.160258 0.021930 0.113305
0 0.494203 0.135891 0.019189 0.069445
0 0.310205 0.048194 0.030826 0.096202
0 0.208772 0.130408 0.034951 0.112086
0 0.130647 0.138327 0.040433 0.137671
