0 0.472959 0.738355 0.060307 0.289962
0 0.930746 0.533676 0.050713 0.229046
0 0.843026 0.349709 0.047972 0.180313
0 0.765243 0.296710 0.050028 0.171784
0 0.684034 0.212037 0.038377 0.141326
0 0.619615 0.190106 0.038377 0.155946
0 0.545259 0.186451 0.029468 0.138889
0 0.560336 0.169395 0.030839 0.158383
0 0.587406 0.179141 0.028783 0.155946
0 0.496945 0.112743 0.027412 0.115741
0 0.517847 0.147466 0.026727 0.073100
0 0.329729 0.143201 0.037007 0.144981
0 0.419504 0.103606 0.041119 0.138889
0 0.287240 0.145028 0.034265 0.158383
0 0.291009 0.048172 0.036321 0.093811
0 0.236527 0.245541 0.046601 0.169348
0 0.105633 0.227266 0.046601 0.154728
0 0.197465 0.129191 0.045230 0.129143
0 0.127220 0.126145 0.040433 0.137671
