0 0.602825 0.895519 0.063734 0.207116
0 0.826579 0.462403 0.065790 0.222954
0 0.788191 0.293674 0.043881 0.173022
0 0.718985 0.235185 0.047972 0.158383
0 0.064514 0.255896 0.047972 0.168129
0 0.211170 0.188889 0.045230 0.163256
0 0.323220 0.177302 0.037690 0.181507
0 0.365708 0.183406 0.036321 0.179094
0 0.129962 0.196198 0.040433 0.148636
0 0.107689 0.160257 0.031524 0.132798
0 0.238241 0.152339 0.047286 0.138889
0 0.463022 0.151728 0.043175 0.157164
0 0.662105 0.213863 0.032895 0.171784
0 0.594936 0.198044 0.031539 0.101087
0 0.635719 0.206555 0.028098 0.135234
0 0.610706 0.177924 0.030154 0.119396
0 0.444518 0.082285 0.025356 0.115741
0 0.347890 0.059137 0.040433 0.105995
