0 0.982161 0.576938 0.035677 0.222976
0 0.427729 0.671955 0.072643 0.271687
0 0.786831 0.319250 0.060307 0.165693
0 0.883459 0.363718 0.039748 0.174221
0 0.711789 0.242495 0.045916 0.148636
0 0.584321 0.170614 0.029468 0.151073
0 0.554855 0.178533 0.028102 0.159601
0 0.523329 0.172441 0.025356 0.123051
0 0.404428 0.088376 0.034265 0.130361
0 0.316708 0.118834 0.037007 0.142544
0 0.255363 0.279031 0.045935 0.175469
0 0.277641 0.126145 0.031532 0.140108
0 0.263254 0.042690 0.030154 0.080410
0 0.175877 0.121272 0.033580 0.127924
0 0.129619 0.106043 0.038377 0.121833
0 0.108374 0.255896 0.042489 0.170566
0 0.044640 0.306456 0.030154 0.069445
0 0.032990 0.264425 0.037007 0.182749
