0 0.644629 0.918666 0.074699 0.158383
0 0.798817 0.447186 0.066488 0.250998
0 0.773467 0.280873 0.048657 0.166911
0 0.475700 0.159649 0.046601 0.151073
0 0.432183 0.076801 0.028098 0.131579
0 0.703900 0.218721 0.041134 0.162003
0 0.672041 0.221782 0.025356 0.180313
0 0.647024 0.219325 0.032902 0.177832
0 0.608650 0.205945 0.032895 0.129143
0 0.623727 0.190107 0.031524 0.143763
0 0.598028 0.151730 0.028098 0.144981
0 0.077878 0.238231 0.048657 0.169348
0 0.247492 0.159648 0.042489 0.141326
0 0.329386 0.188888 0.044545 0.175439
0 0.373589 0.190107 0.047972 0.158383
0 0.361253 0.065837 0.041119 0.116959
0 0.202605 0.174877 0.045916 0.169348
0 0.135088 0.186429 0.038365 0.151030
0 0.097752 0.179142 0.033580 0.136453
